<?xml version="1.0" encoding="utf-8"?>
<!-- Generator: Adobe Illustrator 22.1.0, SVG Export Plug-In . SVG Version: 6.00 Build 0)  -->
<svg version="1.1" id="Layer_1" xmlns="http://www.w3.org/2000/svg" xmlns:xlink="http://www.w3.org/1999/xlink" x="0px" y="0px"
	 width="92.6px" height="72px" viewBox="0 0 92.6 72" enable-background="new 0 0 92.6 72" xml:space="preserve">
<g>
	<path d="M90.4,11.3H60.3l-0.1-0.1L47.6,0.5c-0.7-0.5-1.9-0.7-2.7,0L31.1,11.3h-29c-1.2,0-2.2,1-2.2,2.2l0,56.4C0,71,1,72,2.2,72
		h88.1c1.4,0,2.2-1.1,2.3-2.2l0-56.4C92.6,12.2,91.6,11.3,90.4,11.3z M33.9,14.4l12.3-9.6l11.2,9.8V20H33.9V14.4z M88.1,67.7H4.2
		V15.6l25.4,0V22c0,1.2,1,2.2,2.2,2.2h27.9c0.6,0,1.1-0.2,1.5-0.6c0.4-0.4,0.6-0.9,0.6-1.5v-6.4h26.4V67.7z"/>
	<path d="M36.3,31.1H13.7c-1.2,0-2.2,1-2.2,2.2v22.6c0,1.2,1,2.2,2.2,2.2h22.6c0.5,0,1.1-0.2,1.5-0.7c0.4-0.4,0.7-1,0.7-1.5V33.3
		C38.5,32.1,37.5,31.1,36.3,31.1z M15.9,53.7V35.4h18.3l0,18.3H15.9z"/>
	<path d="M52.5,35.4h18.6c0.6,0,1.2-0.2,1.6-0.6c0.4-0.4,0.6-0.9,0.6-1.6c0-1.2-1-2.2-2.2-2.2H52.5c-1.2,0-2.2,1-2.2,2.2
		C50.4,34.5,51.3,35.4,52.5,35.4z"/>
	<path d="M52.5,45.2h26c0.6,0,1.1-0.3,1.5-0.7c0.4-0.4,0.5-0.9,0.5-1.4c0-1.2-1-2.2-2.2-2.2H52.5c-1.2,0-2.2,1-2.2,2.2
		S51.3,45.2,52.5,45.2z"/>
	<path d="M78.4,50.5H52.5c-1.3,0-2.2,0.9-2.2,2.2c0,1.2,1,2.2,2.2,2.2h26c1.2,0,2-0.9,2-2.2C80.6,51.5,79.6,50.5,78.4,50.5z"/>
</g>
</svg>
