<?xml version="1.0" encoding="utf-8"?>
<!-- Generator: Adobe Illustrator 22.1.0, SVG Export Plug-In . SVG Version: 6.00 Build 0)  -->
<svg version="1.1" id="Layer_1" xmlns="http://www.w3.org/2000/svg" xmlns:xlink="http://www.w3.org/1999/xlink" x="0px" y="0px"
	 width="71.5px" height="71.5px" viewBox="0 0 71.5 71.5" enable-background="new 0 0 71.5 71.5" xml:space="preserve">
<g>
	<rect y="49.5" width="71.5" height="4"/>
	<rect y="58.5" width="71.5" height="4"/>
	<rect y="67.5" width="71.5" height="4"/>
	<path d="M69.5,0H2C0.9,0,0,0.9,0,2v40.5c0,1.1,0.9,2,2,2h67.5c1.1,0,2-0.9,2-2V2C71.5,0.9,70.6,0,69.5,0z M67.5,40.5H4V4h63.5V40.5
		z"/>
	<path d="M33.5,35.5H38c4.8,0,8.8-3.9,8.8-8.8v-9c0-4.8-3.9-8.8-8.8-8.8h-4.5c-4.8,0-8.8,3.9-8.8,8.8v9
		C24.8,31.6,28.7,35.5,33.5,35.5z M28.8,17.8c0-2.6,2.1-4.8,4.8-4.8H38c2.6,0,4.8,2.1,4.8,4.8v9c0,2.6-2.1,4.8-4.8,4.8h-4.5
		c-2.6,0-4.8-2.1-4.8-4.8V17.8z"/>
	<path d="M58.5,17.5h4V11c0-1.1-0.9-2-2-2H54v4h4.5V17.5z"/>
	<path d="M11,35.5h6.5v-4H13V27H9v6.5C9,34.6,9.9,35.5,11,35.5z"/>
	<path d="M9,11v6.5h4V13h4.5V9H11C9.9,9,9,9.9,9,11z"/>
	<path d="M62.5,33.5V27h-4v4.5H54v4h6.5C61.6,35.5,62.5,34.6,62.5,33.5z"/>
</g>
</svg>
