<?xml version="1.0" encoding="utf-16"?>
<!-- Generator: Adobe Illustrator 22.1.0, SVG Export Plug-In . SVG Version: 6.00 Build 0)  -->
<svg version="1.1" id="Layer_1" xmlns="http://www.w3.org/2000/svg" xmlns:xlink="http://www.w3.org/1999/xlink" x="0px" y="0px"
	 width="103.9px" height="72px" viewBox="0 0 103.9 72" enable-background="new 0 0 103.9 72" xml:space="preserve">
<g>
	<g>
		<path d="M5.8,72c-1.7,0-3.3-0.7-4.4-2c-2.1-2.4-1.8-6.1,0.6-8.2l22.1-19.1c1.2-1.3,2.4-2.6,3.5-4l0.2-0.2c2.3-2,4.4-4.3,6.4-7
			l0.7-1l1.2,0.2c7.1,1.2,11.1-0.9,15.3-3.2c4.6-2.4,9.3-4.9,17.1-2.3c6.1-2.9,10.7-7.6,13.7-13.7c1.3-2.6,4.4-3.7,7-2.4
			c1.2,0.6,2.2,1.7,2.6,3c0.5,1.3,0.4,2.7-0.2,4c-3.1,6.4-7.5,11.6-13.2,15.4c1.5,2,2.7,4.5,3.8,7.5c0.3,0.8,3.2,15.1,4.6,24.2
			c0.3,1.6-0.1,3.2-1.1,4.5c-0.9,1.3-2.3,2.2-3.9,2.4c-0.1,0-0.2,0-0.3,0c-3.2,0.4-6.1-1.8-6.6-5c-0.2-1.3-0.4-2.7-0.5-3.9
			c-0.7,2.2-1.5,4.5-2.5,6.9c-0.8,2-2.7,3.4-4.9,3.7c-1,0.1-2,0-3-0.4c-1.5-0.6-2.6-1.8-3.3-3.3c-0.6-1.5-0.6-3.1,0-4.6
			c1.2-2.9,1.3-8.1,1.4-11.9c-4.7,3.8-13.2,10.1-20.3,10c-3.5,0-8.9-2.1-11.9-3.8L9.6,70.6c-0.1,0.1-0.2,0.1-0.2,0.1
			C8.4,71.6,7.1,72,5.8,72z M30.5,41.3c-1.2,1.4-2.4,2.8-3.7,4.2l-0.1,0.1L4.5,64.7c-0.8,0.7-0.9,2-0.2,2.8c0.4,0.4,0.9,0.7,1.5,0.7
			c0.3,0,0.8-0.1,1.2-0.4l0.2-0.2l0.3-0.1c0,0,0.1,0,0.1-0.1l22.5-14.1l1,0.7c2,1.4,7.7,3.7,10.8,3.8c0,0,0.1,0,0.1,0
			c6.8,0,16.5-8.1,19.7-10.8c1.3-1.1,1.5-1.3,2.1-1.4l2.7-0.6l-0.4,2.8C66,48.5,66,49.9,66,51.6c-0.1,4.1-0.2,9.7-1.7,13.4l0,0
			c-0.2,0.5-0.2,1.1,0,1.7c0.2,0.5,0.6,1,1.2,1.2c0.4,0.1,0.7,0.2,1.1,0.2c0.8-0.1,1.5-0.6,1.8-1.3c2.8-6.6,4.2-12.5,4.2-17.6l0-1.2
			l0.9-0.5l2.1-1.6l0.8,2.6c0.8,2.7,1.1,5.7,1.4,9.1c0.2,2.2,0.4,4.5,0.8,6.9c0.2,1.2,1.2,2,2.4,1.9l0.2,0c0.5-0.1,1-0.4,1.4-0.9
			c0.3-0.5,0.5-1.1,0.4-1.6c-1.5-9.4-4.2-22.6-4.5-23.6c-1.1-3.2-2.4-5.6-4.1-7.5l-0.2-0.3c-0.1-0.1-0.2-0.3-0.2-0.4L73,30.4l1.7-1
			c5.8-3.6,10.4-8.6,13.5-15c0.2-0.3,0.2-0.7,0.1-1.1c-0.1-0.3-0.4-0.6-0.7-0.8c-0.7-0.3-1.5-0.1-1.9,0.6c-3.5,7.2-9,12.6-16.3,15.9
			l-0.7,0.3l-0.7-0.3c-6.7-2.5-10.3-0.6-14.8,1.8c-4.2,2.2-8.9,4.7-16.6,3.7C34.7,37.1,32.6,39.3,30.5,41.3z M62.5,64.2L62.5,64.2
			L62.5,64.2z"/>
	</g>
	<g>
		<path d="M22.2,40.7c-0.5,0-1-0.2-1.4-0.6c-2.7-2.9-5.4-5.1-6.2-5.3c-1-0.2-2.4,0-3.7,0.1c-2.8,0.3-6,0.6-7.9-1.7
			c-1.8-2-2.3-3.2-2.4-6.8c-0.1-4.1,5.5-5.9,9.3-7.2c0.5-0.2,1-0.3,1.4-0.5c2.4-0.9,4.1-3.6,4.7-4.5c0.1-0.2,0.2-0.3,0.3-0.4
			c0.2-0.4,1.2-2.5-1.6-4.9C13.3,8,13.4,6.6,14,5.7c1.3-2,5.1-1.9,7.8-0.7c4.3,2,5.2,5.2,5.2,8.1c5.5,2.5,9,8.5,10.4,13.2
			c0.3,1-0.3,2.1-1.3,2.4c-1,0.3-2.1-0.3-2.4-1.3c-1.3-4.5-4.7-9.7-9.3-11.2L23,15.7l0.1-1.5c0.2-3.1-0.5-4.6-3-5.8
			c-0.4-0.2-0.9-0.3-1.3-0.4c1.2,1.6,1.5,3.2,1.5,4.3c0,1.7-0.6,3.2-1.1,3.8l-0.1,0.2c-0.7,1.1-3,4.6-6.6,6
			c-0.4,0.2-0.9,0.3-1.5,0.5c-5.8,1.9-6.7,3-6.7,3.5c0.1,2.8,0.3,3,1.4,4.3c0.7,0.8,2.8,0.6,4.7,0.4c1.6-0.1,3.2-0.3,4.7-0.1
			c2.5,0.4,6.7,4.7,8.4,6.5c0.7,0.8,0.7,2-0.1,2.7C23.1,40.6,22.7,40.7,22.2,40.7z"/>
	</g>
	<g>
		<path d="M77.8,11.7c-0.2,0-0.4,0-0.6-0.1c0,0,0,0,0,0c-0.9-0.3-1.4-1.3-1-2.2c0-0.1,0.5-1.3,1.6-2.6c0.8-1,2.7-2.6,5.6-2.6
			c0.1,0,0.2,0,0.4,0c1,0.1,1.7,0.9,1.7,1.8c0,0.5-0.2,0.9-0.6,1.2c-0.4,0.3-0.8,0.5-1.3,0.4c-0.1,0-0.1,0-0.2,0c0,0,0,0,0,0
			c-2,0-3.1,1.6-3.6,2.5c-0.1,0.2-0.2,0.4-0.2,0.4C79.2,11.2,78.5,11.7,77.8,11.7z M77.6,9.9L77.6,9.9L77.6,9.9z"/>
	</g>
	<g>
		<path d="M73.7,10.2c0,0-0.1,0-0.2,0c-0.5-0.1-0.9-0.3-1.2-0.6C72,9.2,71.9,8.8,72,8.3c0-0.2,0.3-2.1,1.5-4.1
			c1-1.6,3.4-4.2,8.2-4.2c0.4,0,0.8,0,1.3,0.1c0.9,0.1,1.7,0.9,1.6,1.9c-0.1,0.9-0.9,1.6-1.9,1.6c0,0,0,0,0,0c-0.3,0-0.6,0-0.9,0
			c-3.3,0-5.3,1.5-6.3,4.5c-0.1,0.5-0.2,0.7-0.2,0.7C75.3,9.6,74.6,10.2,73.7,10.2z M73.9,8.5C73.9,8.5,73.9,8.5,73.9,8.5
			C73.9,8.5,73.9,8.5,73.9,8.5z"/>
	</g>
	<g>
		<path d="M95.5,20.2c-0.4,0-0.8-0.1-1.1-0.4c0,0,0,0,0,0c-0.4-0.3-0.6-0.7-0.6-1.2c0-0.5,0.1-0.9,0.4-1.3c0.9-1.1,1.4-2.1,1.4-3.1
			c0-1.4-0.9-2.4-1.1-2.7c-0.1-0.1-0.2-0.2-0.2-0.2c-0.3-0.3-0.5-0.7-0.6-1.2c0-0.5,0.1-0.9,0.4-1.3c0.3-0.3,0.7-0.5,1.2-0.6
			c0.5,0,0.9,0.1,1.2,0.4c0,0,0.1,0.1,0.1,0.1c0.5,0.5,2.3,2.4,2.4,5.4c0,1.8-0.8,3.7-2.2,5.4C96.5,20,96,20.2,95.5,20.2z
			 M95.6,18.6C95.6,18.6,95.6,18.6,95.6,18.6C95.6,18.6,95.6,18.6,95.6,18.6z"/>
	</g>
	<g>
		<path d="M100,23.3c-0.3,0-0.7-0.1-0.9-0.3c-0.8-0.6-1-1.6-0.5-2.4c1.2-1.8,1.9-3.8,1.9-5.9c0-2.6-1-4.6-1.4-5.4
			c-0.1-0.2-0.2-0.4-0.2-0.4c-0.3-0.4-0.3-0.8-0.2-1.3c0.1-0.5,0.4-0.8,0.8-1.1c0.8-0.5,1.9-0.3,2.4,0.5c0.1,0.1,2.1,3.3,2.1,7.7
			c0,2.8-0.8,5.4-2.4,7.8C101.1,23,100.6,23.3,100,23.3z M100.2,8.1L100.2,8.1C100.2,8.1,100.2,8.1,100.2,8.1z M100.4,7.9
			C100.4,7.9,100.4,7.9,100.4,7.9C100.4,7.9,100.4,7.9,100.4,7.9z"/>
	</g>
</g>
</svg>
