<?xml version="1.0" encoding="utf-8"?>
<!-- Generator: Adobe Illustrator 22.1.0, SVG Export Plug-In . SVG Version: 6.00 Build 0)  -->
<svg version="1.1" id="Layer_1" xmlns="http://www.w3.org/2000/svg" xmlns:xlink="http://www.w3.org/1999/xlink" x="0px" y="0px"
	 width="67.5px" height="72px" viewBox="0 0 67.5 72" enable-background="new 0 0 67.5 72" xml:space="preserve">
<g>
	<g>
		<path d="M39.1,26.6c-1.6,0-3-0.6-4.1-1.7c-1.1-1.1-1.7-2.6-1.7-4.1c0-2.4,1.4-4.5,3.6-5.4c2.2-0.9,4.7-0.4,6.4,1.3
			c1.7,1.7,2.2,4.2,1.3,6.3C43.6,25.2,41.4,26.6,39.1,26.6z M39.1,17.8c-0.4,0-0.8,0.1-1.1,0.2c-1.1,0.5-1.8,1.5-1.8,2.7
			c0,0.8,0.3,1.5,0.9,2.1c0.6,0.6,1.3,0.9,2.1,0.9c1.2,0,2.3-0.7,2.7-1.8c0.5-1.1,0.2-2.4-0.6-3.2C40.6,18.1,39.8,17.8,39.1,17.8z"
			/>
	</g>
	<g>
		<path d="M15.9,72L0,56.5l11-10.9c2.2-2.2,5-3.7,8-4.4c3-0.7,6.2-0.5,9.1,0.5l1.9,0.7h13.2c1.5,0,3,0.6,4.1,1.7
			c1.1,1.1,1.6,2.6,1.6,4.1c-0.2,3.1-2.7,5.5-5.8,5.5c0,0-0.1,0-0.1,0h-8c-0.1,0-0.2,0.1-0.2,0.2c0,0.1,0.1,0.2,0.2,0.2h8.1
			c0,0,0,0,0,0c3.3,0,6.1-2.6,6.3-5.9l0-0.6l7.8-8.8c2.1-2.4,5.7-2.7,8.1-0.8c1.2,1,2,2.5,2.1,4c0.1,1.6-0.4,3.1-1.4,4.3l-14.9,17
			c-2.2,2.6-5.5,4.1-8.9,4.1H20.4L15.9,72z M4.1,56.5L15.9,68l3.3-3.3h23c2.6,0,5.1-1.1,6.8-3.1l14.9-17c0.5-0.6,0.8-1.4,0.7-2.2
			c-0.1-0.8-0.5-1.5-1.1-2.1c-1.3-1-3.1-0.8-4.2,0.4l-7.1,8c-0.5,4.7-4.4,8.2-9.1,8.2c0,0,0,0,0,0H35c-1.7,0-3.1-1.4-3.1-3.1
			c0-1.7,1.4-3.1,3.1-3.1h8c1.6,0,2.9-1.2,3-2.8c0-0.7-0.3-1.5-0.8-2c-0.5-0.5-1.2-0.8-2-0.8H29.6l-2.4-0.8c-2.4-0.9-5.1-1-7.6-0.4
			c-2.5,0.6-4.8,1.8-6.6,3.6L4.1,56.5z"/>
	</g>
	<g>
		<path d="M40.3,41.5h-2.5c-1.8,0-3.3-1.3-3.6-3l-0.4-2c-0.8-0.3-1.5-0.6-2.3-0.9L30,36.7c-1.5,1-3.4,0.9-4.7-0.4l-1.7-1.7
			c-1.3-1.3-1.4-3.2-0.4-4.7l1.2-1.7c-0.4-0.7-0.7-1.5-0.9-2.3l-2-0.4c-1.8-0.3-3-1.8-3-3.6v-2.5c0-1.8,1.3-3.3,3-3.6l2-0.4
			c0.3-0.8,0.6-1.5,0.9-2.3l-1.2-1.7c-1-1.5-0.9-3.4,0.4-4.7L26,4.5v0.2c1.2-0.7,2.8-0.7,4,0.1L31.6,6c0.7-0.4,1.5-0.7,2.2-0.9
			l0.4-2c0.3-1.8,1.8-3,3.6-3h2.5c1.8,0,3.3,1.3,3.6,3l0.4,2C45,5.3,45.8,5.6,46.5,6l1.7-1.2c1.5-1,3.4-0.8,4.7,0.4l1.8,1.7
			c1.3,1.3,1.4,3.3,0.3,4.7l-1.2,1.7c0.4,0.7,0.7,1.5,0.9,2.3l2,0.4c1.7,0.3,3,1.8,3,3.6V22c0,1.8-1.3,3.3-3,3.6l-2,0.4
			c-0.2,0.8-0.6,1.5-0.9,2.2l1.2,1.7c1,1.5,0.9,3.4-0.4,4.7l-1.7,1.7c-1.3,1.3-3.2,1.4-4.7,0.4l-1.7-1.2c-0.7,0.4-1.5,0.7-2.2,0.9
			l-0.4,2C43.6,40.2,42.1,41.5,40.3,41.5z M31.5,32.1l0.8,0.5c1,0.6,2.1,1,3.3,1.4l0.9,0.2l0.7,3.8c0.1,0.4,0.4,0.7,0.8,0.7h2.5
			c0.4,0,0.7-0.3,0.8-0.7l0.7-3.8l0.9-0.2c1.1-0.3,2.2-0.8,3.3-1.4l0.8-0.5l3.2,2.2c0.3,0.2,0.7,0.2,1-0.1l1.7-1.7
			c0.3-0.3,0.3-0.7,0.1-1l-2.2-3.1l0.5-0.8c0.6-1,1-2.1,1.3-3.3l0.2-0.9l3.8-0.7c0.4-0.1,0.7-0.4,0.7-0.8v-2.5
			c0-0.4-0.3-0.7-0.7-0.8l-3.8-0.7l-0.2-0.9c-0.3-1.1-0.8-2.2-1.4-3.3l-0.5-0.8l2.2-3.2c0.2-0.3,0.2-0.8-0.1-1l-1.7-1.7
			c-0.3-0.3-0.7-0.3-1-0.1l-3.1,2.2l-0.8-0.5c-1-0.6-2.1-1-3.3-1.4l-0.9-0.2l-0.7-3.8c-0.1-0.4-0.4-0.7-0.8-0.7h-2.5
			c-0.4,0-0.7,0.3-0.8,0.7l-0.7,3.8l-0.9,0.2c-1.1,0.3-2.2,0.8-3.3,1.3l-0.8,0.5l-3.1-2.2c-0.3-0.2-0.7-0.2-1,0.1L25.5,9
			c-0.2,0.3-0.3,0.7-0.1,1l2.2,3.2l-0.5,0.8c-0.6,1-1.1,2.1-1.4,3.3l-0.2,0.9l-3.8,0.7c-0.4,0.1-0.7,0.4-0.7,0.8V22
			c0,0.4,0.3,0.7,0.7,0.8l0,0l3.8,0.7l0.2,0.9c0.3,1.1,0.8,2.2,1.4,3.3l0.5,0.8l-2.2,3.2c-0.2,0.3-0.2,0.8,0.1,1l1.7,1.7
			c0.3,0.3,0.7,0.3,1,0.1L31.5,32.1z"/>
	</g>
</g>
</svg>
