<?xml version="1.0" encoding="utf-16"?>
<!-- Generator: Adobe Illustrator 22.1.0, SVG Export Plug-In . SVG Version: 6.00 Build 0)  -->
<svg version="1.1" id="Layer_1" xmlns="http://www.w3.org/2000/svg" xmlns:xlink="http://www.w3.org/1999/xlink" x="0px" y="0px"
	 width="70.9px" height="71px" viewBox="0 0 70.9 71" enable-background="new 0 0 70.9 71" xml:space="preserve">
<g>
	<path d="M68.6,23.5H47.6l-0.1-9.5c0-1.3-1-2.4-2.4-2.4c-1.3,0-2.3,1-2.3,2.4L43,25.8c0,1.3,1,2.4,2.4,2.4h20.9v14.7H45.4
		c-1.3,0-2.4,1.1-2.4,2.4l-0.2,21.1H28.2L28,45.2c0-1.3-1.1-2.4-2.3-2.4H4.7V28.2h20.8c1.3,0,2.3-1.1,2.3-2.4l0.2-21.1h17
		c1.3,0,2.3-1,2.3-2.4c0-1.3-1.1-2.4-2.3-2.4H25.8c-1.3,0-2.4,1.1-2.4,2.4l-0.2,21.1H2.4c-1.3,0-2.4,1.1-2.4,2.3v19.4
		c0,1.3,1.1,2.4,2.4,2.4h20.9l0.2,21.1c0,1.3,1.1,2.4,2.3,2.4h19.3c1.3,0,2.4-1,2.4-2.3l0.2-21.1l20.9,0c1.3,0,2.4-1.1,2.4-2.4V25.9
		C70.9,24.6,69.8,23.5,68.6,23.5z"/>
</g>
</svg>
